{
    "openapi": "3.0.3",
    "info": {
        "title": "Contact API",
        "description": "Contact API",
        "version": "1.0.0"
    },
    "servers": [
        {
            "url": "http://localhost:8000"
        }
    ],
    "paths": {
        "/api/contacts": {
            "post": {
                "description": "Create new contact",
                "parameters": [
                    {
                        "name": "Authorization",
                        "in": "header"
                    }
                ],
                "requestBody": {
                    "description": "Create new contact",
                    "content": {
                        "application/json": {
                            "schema": {
                                "type": "object",
                                "properties": {
                                    "first_name": {
                                        "type": "string"
                                    },
                                    "last_name": {
                                        "type": "string"
                                    },
                                    "email": {
                                        "type": "string"
                                    },
                                    "phone": {
                                        "type": "string"
                                    }
                                }
                            }
                        }
                    }
                },
                "responses": {
                    "201": {
                        "description": "Success create contact",
                        "content": {
                            "application/json": {
                                "schema": {
                                    "type": "object",
                                    "properties": {
                                        "data": {
                                            "type": "object",
                                            "properties": {
                                                "id": {
                                                    "type": "number"
                                                },
                                                "first_name": {
                                                    "type": "string"
                                                },
                                                "last_name": {
                                                    "type": "string"
                                                }
                                            }
                                        },
                                        "errors": {
                                            "type": "object"
                                        }
                                    }
                                }
                            }
                        }
                    }
                }
            },
            "get": {
                "description": "Search contacts pagination",
                "parameters": [
                    {
                        "name": "Authorization",
                        "in": "header"
                    },
                    {
                        "name": "limit",
                        "in": "query"
                    },
                    {
                        "name": "page",
                        "in": "query"
                    },
                    {
                        "name": "sort",
                        "in": "query"
                    }
                ],
                "responses": {
                    "200": {
                        "description": "Success search contacts pagination",
                        "content": {
                            "application/json": {
                                "schema": {
                                    "type": "object",
                                    "properties": {
                                        "status": {
                                            "type": "string"
                                        },
                                        "message": {
                                            "type": "string"
                                        },
                                        "data": {
                                            "type": "object",
                                            "properties": {
                                                "limit": {
                                                    "type": "number"
                                                },
                                                "page": {
                                                    "type": "number"
                                                },
                                                "sort": {
                                                    "type": "string"
                                                },
                                                "total_rows": {
                                                    "type": "number"
                                                },
                                                "total_pages": {
                                                    "type": "number"
                                                },
                                                "rows": {
                                                    "type": "array",
                                                    "items": {
                                                        "type": "object",
                                                        "properties": {
                                                            "id": {
                                                                "type": "number"
                                                            },
                                                            "first_name": {
                                                                "type": "string"
                                                            },
                                                            "last_name": {
                                                                "type": "string"
                                                            },
                                                            "email": {
                                                                "type": "string"
                                                            },
                                                            "phone": {
                                                                "type": "string"
                                                            }
                                                        }
                                                    }
                                                }
                                            }
                                        }
                                    }
                                },
                                "examples": {
                                    "example_1": {
                                        "description": "Get first page",
                                        "value": {
                                            "status":  "200 - STATUS OK",
                                            "message": "Contacts retrieved",
                                            "data": {
                                                "limit": 10,
                                                "page": 1,
                                                "sort": "Id desc",
                                                "total_rows": 41, 
                                                "total_pages": 5, 
                                                "rows": [
                                                    {   
                                                    "id": "1", 
                                                    "first_name": "Prayoga",
                                                    "last_name": "Triady",
                                                    "email": "yoga@gmail.com",
                                                    "phone": "085123456789"
                                                    }   
                                                ] 
                                            }
                                        }
                                    }
                                }
                            }
                        }
                    }
                }
            }
        },
        "/api/contacts/{id}": {
            "put": {
                "description": "Update contact",
                "parameters": [
                    {
                        "name": "Authorization",
                        "in": "header"
                    },
                    {
                        "name": "id",
                        "in": "path"
                    }
                ],
                "requestBody": {
                    "description": "Update contact",
                    "content": {
                        "application/json": {
                            "schema": {
                                "type": "object",
                                "properties": {
                                    "first_name": {
                                        "type": "string"
                                    },
                                    "last_name": {
                                        "type": "string"
                                    },
                                    "email": {
                                        "type": "string"
                                    },
                                    "phone": {
                                        "type": "string"
                                    }
                                }
                            }
                        }
                    }
                },
                "responses": {
                    "200": {
                        "description": "Success update contact",
                        "content": {
                            "application/json": {
                                "schema": {
                                    "type": "object",
                                    "properties": {
                                        "data": {
                                            "type": "object",
                                            "properties": {
                                                "id": {
                                                    "type": "number"
                                                },
                                                "first_name": {
                                                    "type": "string"
                                                },
                                                "last_name": {
                                                    "type": "string"
                                                },
                                                "email": {
                                                    "type": "string"
                                                },
                                                "phone": {
                                                    "type": "string"
                                                }
                                            }
                                        },
                                        "errors": {
                                            "type": "object"
                                        }
                                    }
                                }
                            }
                        }
                    }
                }
            },
            "get": {
                "description": "Get contact",
                "parameters": [
                    {
                        "name": "Authorization",
                        "in": "header"
                    },
                    {
                        "name": "id",
                        "in": "path"
                    }
                ],
                "responses": {
                    "200": {
                        "description": "Success get contact",
                        "content": {
                            "application/json": {
                                "schema": {
                                    "type": "object",
                                    "properties": {
                                        "data": {
                                            "type": "object",
                                            "properties": {
                                                "id": {
                                                    "type": "number"
                                                },
                                                "first_name": {
                                                    "type": "string"
                                                },
                                                "last_name": {
                                                    "type": "string"
                                                },
                                                "email": {
                                                    "type": "string"
                                                },
                                                "phone": {
                                                    "type": "string"
                                                }
                                            }
                                        },
                                        "errors": {
                                            "type": "object"
                                        }
                                    }
                                }
                            }
                        }
                    }
                }
            },
            "delete": {
                "description": "Remove contact",
                "parameters": [
                    {
                        "name": "Authorization",
                        "in": "header"
                    },
                    {
                        "name": "id",
                        "in": "path"
                    }
                ],
                "responses": {
                    "200": {
                        "description": "Success delete contact",
                        "content": {
                            "application/json": {
                                "schema": {
                                    "type": "object",
                                    "properties": {
                                        "data": {
                                            "type": "boolean"
                                        },
                                        "errors": {
                                            "type": "object"
                                        }
                                    }
                                }
                            }
                        }
                    }
                }
            }
        }
    }
}